<svg xmlns="http://www.w3.org/2000/svg" width="32.382" height="32.382" viewBox="0 0 32.382 32.382">
  <g id="Icon_feather-edit" data-name="Icon feather-edit" transform="translate(-1.9 -1.718)">
    <path id="Path_33" data-name="Path 33" d="M16.5,6H6A3,3,0,0,0,3,9V30a3,3,0,0,0,3,3H27a3,3,0,0,0,3-3V19.5" fill="none" stroke="#fff" stroke-linecap="round" stroke-linejoin="round" stroke-width="2.2"/>
    <path id="Path_34" data-name="Path 34" d="M27.75,3.75a3.182,3.182,0,0,1,4.5,4.5L18,22.5,12,24l1.5-6Z" fill="none" stroke="#fff" stroke-linecap="round" stroke-linejoin="round" stroke-width="2.2"/>
  </g>
</svg>
